<?xml version="1.0" encoding="utf-8"  standalone="no"?>
<!DOCTYPE svg PUBLIC "-//W3C//DTD SVG 1.1//EN" 
 "http://www.w3.org/Graphics/SVG/1.1/DTD/svg11.dtd">
<svg 
 width="600" height="480" 
 viewBox="0 0 600 480"
 xmlns="http://www.w3.org/2000/svg"
 xmlns:xlink="http://www.w3.org/1999/xlink"
>

<title>Gnuplot</title>
<desc>Produced by GNUPLOT 4.6 patchlevel 0 </desc>

<g id="gnuplot_canvas">

<rect x="0" y="0" width="600" height="480" fill="none"/>
<defs>

	<circle id='gpDot' r='0.5' stroke-width='0.5'/>
	<path id='gpPt0' stroke-width='0.222' stroke='currentColor' d='M-1,0 h2 M0,-1 v2'/>
	<path id='gpPt1' stroke-width='0.222' stroke='currentColor' d='M-1,-1 L1,1 M1,-1 L-1,1'/>
	<path id='gpPt2' stroke-width='0.222' stroke='currentColor' d='M-1,0 L1,0 M0,-1 L0,1 M-1,-1 L1,1 M-1,1 L1,-1'/>
	<rect id='gpPt3' stroke-width='0.222' stroke='currentColor' x='-1' y='-1' width='2' height='2'/>
	<rect id='gpPt4' stroke-width='0.222' stroke='currentColor' fill='currentColor' x='-1' y='-1' width='2' height='2'/>
	<circle id='gpPt5' stroke-width='0.222' stroke='currentColor' cx='0' cy='0' r='1'/>
	<use xlink:href='#gpPt5' id='gpPt6' fill='currentColor' stroke='none'/>
	<path id='gpPt7' stroke-width='0.222' stroke='currentColor' d='M0,-1.33 L-1.33,0.67 L1.33,0.67 z'/>
	<use xlink:href='#gpPt7' id='gpPt8' fill='currentColor' stroke='none'/>
	<use xlink:href='#gpPt7' id='gpPt9' stroke='currentColor' transform='rotate(180)'/>
	<use xlink:href='#gpPt9' id='gpPt10' fill='currentColor' stroke='none'/>
	<use xlink:href='#gpPt3' id='gpPt11' stroke='currentColor' transform='rotate(45)'/>
	<use xlink:href='#gpPt11' id='gpPt12' fill='currentColor' stroke='none'/>
</defs>
<g style="fill:none; color:white; stroke:currentColor; stroke-width:1.00; stroke-linecap:butt; stroke-linejoin:miter">
</g>
<g style="fill:none; color:black; stroke:currentColor; stroke-width:1.00; stroke-linecap:butt; stroke-linejoin:miter">
	<path  d='M63.6,422.4 L72.6,422.4 M575.0,422.4 L566.0,422.4  h0.01'/>	<g transform="translate(55.3,426.9)" style="stroke:none; fill:black; font-family:Arial; font-size:12.00pt; text-anchor:end">
		<text>-5</text>
	</g>
	<path  d='M63.6,376.4 L72.6,376.4 M575.0,376.4 L566.0,376.4  h0.01'/>	<g transform="translate(55.3,380.9)" style="stroke:none; fill:black; font-family:Arial; font-size:12.00pt; text-anchor:end">
		<text> 0</text>
	</g>
	<path  d='M63.6,330.3 L72.6,330.3 M575.0,330.3 L566.0,330.3  h0.01'/>	<g transform="translate(55.3,334.8)" style="stroke:none; fill:black; font-family:Arial; font-size:12.00pt; text-anchor:end">
		<text> 5</text>
	</g>
	<path  d='M63.6,284.3 L72.6,284.3 M575.0,284.3 L566.0,284.3  h0.01'/>	<g transform="translate(55.3,288.8)" style="stroke:none; fill:black; font-family:Arial; font-size:12.00pt; text-anchor:end">
		<text> 10</text>
	</g>
	<path  d='M63.6,238.2 L72.6,238.2 M575.0,238.2 L566.0,238.2  h0.01'/>	<g transform="translate(55.3,242.7)" style="stroke:none; fill:black; font-family:Arial; font-size:12.00pt; text-anchor:end">
		<text> 15</text>
	</g>
	<path  d='M63.6,192.2 L72.6,192.2 M575.0,192.2 L566.0,192.2  h0.01'/>	<g transform="translate(55.3,196.7)" style="stroke:none; fill:black; font-family:Arial; font-size:12.00pt; text-anchor:end">
		<text> 20</text>
	</g>
	<path  d='M63.6,146.2 L72.6,146.2 M575.0,146.2 L566.0,146.2  h0.01'/>	<g transform="translate(55.3,150.7)" style="stroke:none; fill:black; font-family:Arial; font-size:12.00pt; text-anchor:end">
		<text> 25</text>
	</g>
	<path  d='M63.6,100.1 L72.6,100.1 M575.0,100.1 L566.0,100.1  h0.01'/>	<g transform="translate(55.3,104.6)" style="stroke:none; fill:black; font-family:Arial; font-size:12.00pt; text-anchor:end">
		<text> 30</text>
	</g>
	<path  d='M63.6,54.1 L72.6,54.1 M575.0,54.1 L566.0,54.1  h0.01'/>	<g transform="translate(55.3,58.6)" style="stroke:none; fill:black; font-family:Arial; font-size:12.00pt; text-anchor:end">
		<text> 35</text>
	</g>
	<path  d='M63.6,422.4 L63.6,413.4 M63.6,54.1 L63.6,63.1  h0.01'/>	<g transform="translate(63.6,444.9)" style="stroke:none; fill:black; font-family:Arial; font-size:12.00pt; text-anchor:middle">
		<text> 0</text>
	</g>
	<path  d='M136.7,422.4 L136.7,413.4 M136.7,54.1 L136.7,63.1  h0.01'/>	<g transform="translate(136.7,444.9)" style="stroke:none; fill:black; font-family:Arial; font-size:12.00pt; text-anchor:middle">
		<text> 5</text>
	</g>
	<path  d='M209.7,422.4 L209.7,413.4 M209.7,54.1 L209.7,63.1  h0.01'/>	<g transform="translate(209.7,444.9)" style="stroke:none; fill:black; font-family:Arial; font-size:12.00pt; text-anchor:middle">
		<text> 10</text>
	</g>
	<path  d='M282.8,422.4 L282.8,413.4 M282.8,54.1 L282.8,63.1  h0.01'/>	<g transform="translate(282.8,444.9)" style="stroke:none; fill:black; font-family:Arial; font-size:12.00pt; text-anchor:middle">
		<text> 15</text>
	</g>
	<path  d='M355.8,422.4 L355.8,413.4 M355.8,54.1 L355.8,63.1  h0.01'/>	<g transform="translate(355.8,444.9)" style="stroke:none; fill:black; font-family:Arial; font-size:12.00pt; text-anchor:middle">
		<text> 20</text>
	</g>
	<path  d='M428.9,422.4 L428.9,413.4 M428.9,54.1 L428.9,63.1  h0.01'/>	<g transform="translate(428.9,444.9)" style="stroke:none; fill:black; font-family:Arial; font-size:12.00pt; text-anchor:middle">
		<text> 25</text>
	</g>
	<path  d='M501.9,422.4 L501.9,413.4 M501.9,54.1 L501.9,63.1  h0.01'/>	<g transform="translate(501.9,444.9)" style="stroke:none; fill:black; font-family:Arial; font-size:12.00pt; text-anchor:middle">
		<text> 30</text>
	</g>
	<path  d='M575.0,422.4 L575.0,413.4 M575.0,54.1 L575.0,63.1  h0.01'/>	<g transform="translate(575.0,444.9)" style="stroke:none; fill:black; font-family:Arial; font-size:12.00pt; text-anchor:middle">
		<text> 35</text>
	</g>
	<path  d='M63.6,54.1 L63.6,422.4 L575.0,422.4 L575.0,54.1 L63.6,54.1 Z  h0.01'/>	<g transform="translate(17.6,238.3) rotate(270)" style="stroke:none; fill:black; font-family:Arial; font-size:12.00pt; text-anchor:middle">
		<text>Diferencia porcentual con valor real</text>
	</g>
	<g transform="translate(319.3,471.9)" style="stroke:none; fill:black; font-family:Arial; font-size:12.00pt; text-anchor:middle">
		<text>Numero de terminos procesados</text>
	</g>
	<g transform="translate(319.3,31.6)" style="stroke:none; fill:black; font-family:Arial; font-size:12.00pt; text-anchor:middle">
		<text>Ejemplo Overflow para Doubles</text>
	</g>
</g>
	<g id="gnuplot_plot_1" ><title>gnuplot_plot_1</title>
<g style="fill:none; color:red; stroke:currentColor; stroke-width:1.00; stroke-linecap:butt; stroke-linejoin:miter">
	<use xlink:href='#gpPt6' transform='translate(63.6,99.2) scale(4.50)'/>
	<use xlink:href='#gpPt6' transform='translate(78.2,284.7) scale(4.50)'/>
	<use xlink:href='#gpPt6' transform='translate(92.8,352.7) scale(4.50)'/>
	<use xlink:href='#gpPt6' transform='translate(107.4,371.4) scale(4.50)'/>
	<use xlink:href='#gpPt6' transform='translate(122.0,375.5) scale(4.50)'/>
	<use xlink:href='#gpPt6' transform='translate(136.7,376.2) scale(4.50)'/>
	<use xlink:href='#gpPt6' transform='translate(151.3,376.3) scale(4.50)'/>
	<use xlink:href='#gpPt6' transform='translate(165.9,376.4) scale(4.50)'/>
	<use xlink:href='#gpPt6' transform='translate(180.5,376.4) scale(4.50)'/>
	<use xlink:href='#gpPt6' transform='translate(195.1,376.4) scale(4.50)'/>
	<use xlink:href='#gpPt6' transform='translate(209.7,376.4) scale(4.50)'/>
	<use xlink:href='#gpPt6' transform='translate(224.3,376.4) scale(4.50)'/>
	<use xlink:href='#gpPt6' transform='translate(238.9,376.4) scale(4.50)'/>
	<use xlink:href='#gpPt6' transform='translate(253.5,376.4) scale(4.50)'/>
	<use xlink:href='#gpPt6' transform='translate(268.2,376.4) scale(4.50)'/>
	<use xlink:href='#gpPt6' transform='translate(282.8,376.4) scale(4.50)'/>
	<use xlink:href='#gpPt6' transform='translate(297.4,376.4) scale(4.50)'/>
	<use xlink:href='#gpPt6' transform='translate(312.0,376.4) scale(4.50)'/>
	<use xlink:href='#gpPt6' transform='translate(326.6,376.4) scale(4.50)'/>
	<use xlink:href='#gpPt6' transform='translate(341.2,376.4) scale(4.50)'/>
	<use xlink:href='#gpPt6' transform='translate(355.8,376.4) scale(4.50)'/>
	<use xlink:href='#gpPt6' transform='translate(370.4,376.4) scale(4.50)'/>
	<use xlink:href='#gpPt6' transform='translate(385.1,376.4) scale(4.50)'/>
	<use xlink:href='#gpPt6' transform='translate(399.7,376.4) scale(4.50)'/>
	<use xlink:href='#gpPt6' transform='translate(414.3,376.4) scale(4.50)'/>
	<use xlink:href='#gpPt6' transform='translate(428.9,376.4) scale(4.50)'/>
	<use xlink:href='#gpPt6' transform='translate(443.5,376.4) scale(4.50)'/>
	<use xlink:href='#gpPt6' transform='translate(458.1,376.4) scale(4.50)'/>
	<use xlink:href='#gpPt6' transform='translate(472.7,376.4) scale(4.50)'/>
	<use xlink:href='#gpPt6' transform='translate(487.3,376.4) scale(4.50)'/>
	<use xlink:href='#gpPt6' transform='translate(501.9,376.4) scale(4.50)'/>
	<use xlink:href='#gpPt6' transform='translate(516.6,376.4) scale(4.50)'/>
	<use xlink:href='#gpPt6' transform='translate(531.2,376.4) scale(4.50)'/>
</g>
	</g>
<g style="fill:none; color:black; stroke:currentColor; stroke-width:1.00; stroke-linecap:butt; stroke-linejoin:miter">
	<path  d='M63.6,54.1 L63.6,422.4 L575.0,422.4 L575.0,54.1 L63.6,54.1 Z  h0.01'/></g>
</g>
</svg>

